@startuml
set namespaceSeparator none

hide method

namespace movie.service.model.domain {

    class BinaryContent {
        - id: String
        - value: byte[]
        - binaryId: String
        - binary: Binary
    }

    class Binary {
        - id: String
        - mimeType: String
        - fileName: String
        - fileSize: Long
    }

    BinaryContent *-left-> Binary : binary
}
@enduml